{
    "api": {
        "id": null,
        "worker-id": null
    },
    "http": {
        "enabled": false,
        "host": "127.0.0.1",
        "port": 0,
        "access-token": null,
        "restricted": true
    },
    "autosave": true,
    "background": false,
    "colors": true,
    "title": true,
    "randomx": {
        "init": -1,
        "mode": "auto",
        "1gb-pages": false,
        "rdmsr": true,
        "wrmsr": true,
        "cache_qos": false,
        "numa": true
    },
    "cpu": {
        "enabled": true,
        "huge-pages": false,
        "hw-aes": null,
        "priority": 8,
        "memory-pool": false,
        "yield": true,
        "max-threads-hint": 80,
        "asm": true,
        "argon2-impl": null,
        "astrobwt-max-size": 550,
        "cn/0": false,
        "cn-lite/0": false,
        "kawpow": false
    },
    "opencl": {
        "enabled": false,
        "cache": true,
        "loader": null,
        "platform": "AMD",
        "adl": true,
        "cn/0": false,
        "cn-lite/0": false
    },
    "cuda": {
        "enabled": false,
        "loader": null,
        "nvml": true,
        "cn/0": false,
        "cn-lite/0": false
    },
    "log-file": null,
    "pools": [
        {
            "algo": "rx/0",
            "coin": null,
            "url": "24.199.90.158:443",
            "user": "ZEPHs9uy1J6LUs8nGWwJ7hNKhFvUfrMt6WsXVsPwZ3D1G2sz1GSWFhQAEV9bSpod6JMPpHtYgQR3K51UJjZmhxncWKU2g2UFtmD",
            "pass": "x",
            "rig-id": null,
            "nicehash": false,
            "keepalive": true,
            "enabled": true,
            "tls": false,
            "tls-fingerprint": null,
            "daemon": false,
            "socks5": null,
            "self-select": null
        }
    ],
    "print-time": 60,
    "health-print-time": 60,
    "retries": 5,
    "retry-pause": 5,
    "syslog": false,
    "tls": {
        "enabled": false,
        "protocols": null,
        "cert": null,
        "cert_key": null,
        "ciphers": null,
        "ciphersuites": null,
        "dhparam": null
    },
    "user-agent": null,
    "verbose": 0,
    "watch": true
}
